﻿Operator;Module;Message Frequency [hours];Signal Conditions;Payload Size [bytes];RAI;Lifetime [Years];Notes
Telia Norway;ublox sara-n211;1;Good;20;No;1.639036518;
Telia Norway;ublox sara-n211;4;Good;20;No;6.067426093;
Telia Norway;ublox sara-n211;24;Good;20;No;24.31901358;
Telia Norway;ublox sara-n211;1;Good;20;Yes;5.959605555;
Telia Norway;ublox sara-n211;4;Good;20;Yes;18.43828296;
Telia Norway;ublox sara-n211;24;Good;20;Yes;44.07195967;
Telia Norway;ublox sara-n211;1;Good;512;No;1.47438724;
Telia Norway;ublox sara-n211;4;Good;512;No;5.49910218;
Telia Norway;ublox sara-n211;24;Good;512;No;22.74848167;
Telia Norway;ublox sara-n211;1;Good;512;Yes;4.2175066;
Telia Norway;ublox sara-n211;4;Good;512;Yes;13.97377374;
Telia Norway;ublox sara-n211;24;Good;512;Yes;39.09593772;
Telia Norway;ublox sara-n211;1;Bad;20;No;0.540215088;
Telia Norway;ublox sara-n211;4;Bad;20;No;2.104977176;
Telia Norway;ublox sara-n211;24;Bad;20;No;10.77256271;
Telia Norway;ublox sara-n211;1;Bad;20;Yes;4.458560577;
Telia Norway;ublox sara-n211;4;Bad;20;Yes;14.6289067;
Telia Norway;ublox sara-n211;24;Bad;20;Yes;39.92977462;
Telia Norway;ublox sara-n211;1;Bad;512;No;;We do not have data
Telia Norway;ublox sara-n211;4;Bad;512;No;;We do not have data
Telia Norway;ublox sara-n211;24;Bad;512;No;;We do not have data
Telia Norway;ublox sara-n211;1;Bad;512;Yes;2.358714941;
Telia Norway;ublox sara-n211;4;Bad;512;Yes;8.454813741;
Telia Norway;ublox sara-n211;24;Bad;512;Yes;29.97275227;